Introduction to the barcodeMineR package • barcodeMineR
…
rec_NCBI <- download_ncbi(tax, ask = FALSE)

Now we have the final refdb formatted data frame including
all DNA barcodes available at the NCBI for the species Dissostichus
mawsoni.

#> # A tibble: 192 × 30
#>    recordID   markerCode DNA_seq  phylum class order family genus species source
#>    <chr>      <chr>      <DNA>    <chr>  <chr> <chr> <chr>  <chr> <chr>   <chr> 
#>  1 HM422302.1 COI        CTCTACT… Chord… Acti… Perc… Notot… Diss… Dissos… NCBI  
#>  2 ON000293.1 COX1       GCGCCTG… Chord… Acti… Perc… Notot… Diss… Dissos… NCBI  
#>  3 MK843765.1 COI        TCTCTAC… Chord… Acti… Perc… Notot… Diss… Dissos… NCBI  
#>  4 DQ498816.1 Cytb       GCCACCC… Chord… Acti… Perc… Notot… Diss… Dissos… NCBI  
#>  5 DQ498794.1 Rhod       GCCTACA… Chord… Acti… Perc… Notot… Diss… Dissos… NCBI  
#>  6 MK500763.1 enc1       TCTGACG… Chord… Acti… Perc… Notot… Diss… Dissos… NCBI  
#>  7 MG729451.1 COI        GAACTTA… Chord… Acti… Perc… Notot… Diss… Dissos… NCBI  
#>  8 KY656477.1 COI        GCCGGAA… Chord… Acti… Perc… Notot… Diss… Dissos… NCBI  
#>  9 LC138011.1 ND1        ATGCTTT… Chord… Acti… Perc… Notot… Diss… Dissos… NCBI  
#> 10 LC138011.1 ND2        ATGAGCC… Chord… Acti… Perc… Notot… Diss… Dissos… NCBI  
#> # ℹ 182 more rows
#> # ℹ 20 more variables: lat <dbl>, lon <dbl>, lengthGene <int>, sampleID <chr>,
#> #   QueryName <chr>, identified_by <chr>, taxNotes <lgl>, db_xref <chr>,
#> #   sourceID <chr>, NCBI_ID <chr>, institutionStoring <lgl>,
#> #   collected_by <chr>, collection_date <chr>, altitude <lgl>, depth <lgl>,
#> #   country <lgl>, directionPrimers <chr>, lengthSource <int>,
#> #   PCR_primers <chr>, note <chr>
…
total <- mergeBarcodeOres(rec_NCBI, rec_BOLD)
#> '5' records from BOLD were mined from the NCBI.
#> If they are already represented by the NCBI barcodeOre they will be removed to avoid duplicates.
#> '3' records from NCBI were mined from BOLD.
#> If they are already represented by the BOLD barcodeOre they will be removed to avoid duplicates.
#> Duplicated records obtained from the BOLD will be kept.

As we can see from the printed messages, some records were actually
mined versions of other records obtained from the other repository. They
have been removed after checking that the original version was
downloaded from the opposite repository.

total
#> # A tibble: 203 × 30
#>    recordID   markerCode DNA_seq  phylum class order family genus species source
#>    <chr>      <chr>      <DNA>    <chr>  <chr> <chr> <chr>  <chr> <chr>   <chr> 
#>  1 ON000293.1 COX1       GCGCCTG… Chord… Acti… Perc… Notot… Diss… Dissos… NCBI  
#>  2 MK843765.1 COI        TCTCTAC… Chord… Acti… Perc… Notot… Diss… Dissos… NCBI  
#>  3 DQ498816.1 Cytb       GCCACCC… Chord… Acti… Perc… Notot… Diss… Dissos… NCBI  
#>  4 DQ498794.1 Rhod       GCCTACA… Chord… Acti… Perc… Notot… Diss… Dissos… NCBI  
#>  5 MK500763.1 enc1       TCTGACG… Chord… Acti… Perc… Notot… Diss… Dissos… NCBI  
#>  6 MG729451.1 COI        GAACTTA… Chord… Acti… Perc… Notot… Diss… Dissos… NCBI  
#>  7 KY656477.1 COI        GCCGGAA… Chord… Acti… Perc… Notot… Diss… Dissos… NCBI  
#>  8 LC138011.1 ND1        ATGCTTT… Chord… Acti… Perc… Notot… Diss… Dissos… NCBI  
#>  9 LC138011.1 ND2        ATGAGCC… Chord… Acti… Perc… Notot… Diss… Dissos… NCBI  
#> 10 LC138011.1 COI        GTGGCCA… Chord… Acti… Perc… Notot… Diss… Dissos… NCBI  
#> # ℹ 193 more rows
#> # ℹ 20 more variables: lat <dbl>, lon <dbl>, lengthGene <int>, sampleID <chr>,
#> #   QueryName <chr>, identified_by <chr>, taxNotes <lgl>, db_xref <chr>,
#> #   sourceID <chr>, NCBI_ID <chr>, institutionStoring <chr>,
#> #   collected_by <chr>, collection_date <chr>, altitude <int>, depth <int>,
#> #   country <chr>, directionPrimers <chr>, lengthSource <int>,
#> #   PCR_primers <chr>, note <chr>
…
We can merge these records with the ones we mined online and examine
all results:

total <- mergeBarcodeOres(total, new_records)
#> No records were obtained from both the NCBI and BOLD
total
#> # A tibble: 204 × 30
#>    recordID   markerCode DNA_seq  phylum class order family genus species source
#>    <chr>      <chr>      <DNA>    <chr>  <chr> <chr> <chr>  <chr> <chr>   <chr> 
#>  1 ON000293.1 COX1       GCGCCTG… Chord… Acti… Perc… Notot… Diss… Dissos… NCBI  
#>  2 MK843765.1 COI        TCTCTAC… Chord… Acti… Perc… Notot… Diss… Dissos… NCBI  
#>  3 DQ498816.1 Cytb       GCCACCC… Chord… Acti… Perc… Notot… Diss… Dissos… NCBI  
#>  4 DQ498794.1 Rhod       GCCTACA… Chord… Acti… Perc… Notot… Diss… Dissos… NCBI  
#>  5 MK500763.1 enc1       TCTGACG… Chord… Acti… Perc… Notot… Diss… Dissos… NCBI  
#>  6 MG729451.1 COI        GAACTTA… Chord… Acti… Perc… Notot… Diss… Dissos… NCBI  
#>  7 KY656477.1 COI        GCCGGAA… Chord… Acti… Perc… Notot… Diss… Dissos… NCBI  
#>  8 LC138011.1 ND1        ATGCTTT… Chord… Acti… Perc… Notot… Diss… Dissos… NCBI  
#>  9 LC138011.1 ND2        ATGAGCC… Chord… Acti… Perc… Notot… Diss… Dissos… NCBI  
#> 10 LC138011.1 COI        GTGGCCA… Chord… Acti… Perc… Notot… Diss… Dissos… NCBI  
#> # ℹ 194 more rows
#> # ℹ 20 more variables: lat <dbl>, lon <dbl>, lengthGene <int>, sampleID <chr>,
#> #   QueryName <chr>, identified_by <chr>, taxNotes <chr>, db_xref <chr>,
#> #   sourceID <chr>, NCBI_ID <chr>, institutionStoring <chr>,
#> #   collected_by <chr>, collection_date <chr>, altitude <chr>, depth <dbl>,
#> #   country <chr>, directionPrimers <chr>, lengthSource <int>,
#> #   PCR_primers <chr>, note <chr>
…
