Searching taxonomy • barcodeMineR
…
By merging this data frame with the one including all
unclassified Maldane we can be confident to download most of
the available Maldane sarsi records from the NCBI:

all_maldane <- rbind(tax_maldane_all, additional_tax)

ncbi_maldane <- download_ncbi(all_maldane, ask = FALSE)
ncbi_maldane
#> # A tibble: 29 × 30
#>    recordID   markerCode DNA_seq  phylum class order family genus species source
#>    <chr>      <chr>      <DNA>    <chr>  <chr> <chr> <chr>  <chr> <chr>   <chr> 
#>  1 OQ053050.1 COX1       AACCTTA… Annel… Poly… NA    Malda… Mald… Maldan… NCBI  
#>  2 LC342665.1 COX1       AACACTA… Annel… Poly… NA    Malda… Mald… Maldan… NCBI  
#>  3 LC342640.1 COX1       AACATTA… Annel… Poly… NA    Malda… Mald… Maldan… NCBI  
#>  4 LC342639.1 COX1       AACATTA… Annel… Poly… NA    Malda… Mald… Maldan… NCBI  
#>  5 MG421523.1 COI        AACATTA… Annel… Poly… NA    Malda… Mald… Maldan… NCBI  
#>  6 HQ023885.1 COI        AACATTA… Annel… Poly… NA    Malda… Mald… Maldan… NCBI  
#>  7 GQ229112.1 COI        TTGTGGT… Annel… Poly… NA    Malda… Mald… Maldan… NCBI  
#>  8 GU672597.1 COI        GGAACAT… Annel… Poly… NA    Malda… Mald… Maldan… NCBI  
#>  9 GU672596.1 COI        GGAACAT… Annel… Poly… NA    Malda… Mald… Maldan… NCBI  
#> 10 GU672576.1 COI        GGAACAT… Annel… Poly… NA    Malda… Mald… Maldan… NCBI  
#> # ℹ 19 more rows
#> # ℹ 20 more variables: lat <dbl>, lon <dbl>, lengthGene <int>, sampleID <chr>,
#> #   QueryName <chr>, identified_by <chr>, taxNotes <lgl>, db_xref <chr>,
#> #   sourceID <chr>, NCBI_ID <chr>, institutionStoring <lgl>,
#> #   collected_by <chr>, collection_date <chr>, altitude <lgl>, depth <lgl>,
#> #   country <lgl>, directionPrimers <lgl>, lengthSource <int>,
#> #   PCR_primers <lgl>, note <lgl>
…
